Exploring probability distributions for bivariate temporal granularities
…
Exploration of large quantities of temporal data across so many different deconstructions of time becomes clumsy without a systematic approach.

This vignette describes the tools in the package gravitas for systematically exploring large quantities of temporal data across different time deconstructions by visualizing the probability distributions using a range of graphics in ggplot2.

Analysis of smart meter data

The smart_meter10 data set in the package is a tsibble providing the energy consumption for ten households from customer trials. It is hard to derive insights when we try to visualize periodicity in the data for all households. For example, if we plot the energy consumption across each hour of the day, the structure of the data suggests that there are several data points for each hour of the day for just one household. Hence, for several households, there will be a blob of points for each hour of the day.

smart_meter10 %>% select(customer_id,
                         reading_datetime,
                         general_supply_kwh,
                         everything()
)
#> # A tsibble: 259,235 x 3 [30m] <UTC>
#> # Key:       customer_id [10]
#>    customer_id reading_datetime    general_supply_kwh
#>    <chr>       <dttm>                           <dbl>
#>  1 10006704    2012-06-01 10:00:00              0.24 
#>  2 10006704    2012-06-01 10:30:00              0.245
#>  3 10006704    2012-06-01 11:00:00              0.206
#>  4 10006704    2012-06-01 11:30:00              0.217
#>  5 10006704    2012-06-01 12:00:00              0.214
#>  6 10006704    2012-06-01 12:30:00              0.23 
#>  7 10006704    2012-06-01 13:00:00              0.898
#>  8 10006704    2012-06-01 13:30:00              0.197
#>  9 10006704    2012-06-01 14:00:00              0.255
#> 10 10006704    2012-06-01 14:30:00              0.199
#> # … with 259,225 more rows
…
smart_meter10 %>% gran_advice(
  "week_month",
  "hour_day"
)
#> The chosen granularities are harmonies 
#>  
#> Recommended plots are: violin lv quantile boxplot 
#>  
#> Number of observations are homogenous across facets 
#>  
#> Number of observations are homogenous within facets 
#>  
#> Cross tabulation of granularities : 
#>  
#> # A tibble: 24 x 6
#>    hour_day   `1`   `2`   `3`   `4`   `5`
#>    <fct>    <dbl> <dbl> <dbl> <dbl> <dbl>
#>  1 0         2474  2464  2518  2489   857
#>  2 1         2470  2470  2518  2486   854
#>  3 2         2469  2469  2520  2486   855
#>  4 3         2468  2468  2522  2486   856
#>  5 4         2467  2468  2521  2486   856
#>  6 5         2468  2468  2520  2487   856
#>  7 6         2470  2469  2519  2486   855
#>  8 7         2470  2472  2518  2484   854
#>  9 8         2470  2471  2519  2479   854
#> 10 9         2470  2470  2520  2478   856
#> # … with 14 more rows
…
